Data 606 Final
…
sum(allrefugees$x)

## [1] 474243490

top25 <- allrefugees %>%
  arrange(desc(x)) %>%
   slice(1:25) 
top25

## # A tibble: 25 x 3
##     Year              CoO       x
##    <chr>           <fctr>   <int>
##  1  1990      Afghanistan 6339095
##  2  1991      Afghanistan 6306301
##  3  1989      Afghanistan 5643989
##  4  1988      Afghanistan 5622982
##  5  1987      Afghanistan 5511740
##  6  2016 Syrian Arab Rep. 5500448
##  7  1986      Afghanistan 5094283
##  8  2015 Syrian Arab Rep. 4851450
##  9  1983      Afghanistan 4712735
## 10  1985      Afghanistan 4653193
## # ... with 15 more rows
…
